%YAML 1.1
%TAG !u! tag:unity3d.com,2011:
--- !u!1045 &1
EditorBuildSettings:
  m_ObjectHideFlags: 0
  serializedVersion: 2
  m_Scenes:
  - enabled: 1
    path: Assets/Scenes/tutorial.unity
    guid: 5d776d16487b68149833c8fa83e2d5fd
  - enabled: 1
    path: Assets/Scenes/paths1.unity
    guid: 00462519208a27a44aa70142082fa2b4
  - enabled: 1
    path: Assets/Scenes/Report.unity
    guid: 3fdf5d69465e6f440b0fcbc5e6aab45e
  m_configObjects: {}
